EESchema Schematic File Version 4
EELAYER 30 0
EELAYER END
$Descr A4 11693 8268
encoding utf-8
Sheet 1 1
Title "DaisyDAC"
Date "2023-04-23"
Rev "1.1"
Comp ""
Comment1 ""
Comment2 ""
Comment3 ""
Comment4 ""
$EndDescr
$Comp
L AddOn:AD57x1R U1
U 1 1 64F240D4
P 5200 1400
F 0 "U1" H 5200 1900 50  0000 C CNN
F 1 "AD5761RARUZ" H 5200 900 50  0000 C CNN
F 2 "Package_SO:TSSOP-16_4.4x5mm_P0.65mm" H 5200 1400 50  0001 C CNN
F 3 "" H 5200 1400 50  0001 C CNN
	1    5200 1400
	1    0    0    -1  
$EndComp
$Comp
L AddOn:AD57x1R U2
U 1 1 64F24732
P 5200 2700
F 0 "U2" H 5200 3200 50  0000 C CNN
F 1 "AD5761RARUZ" H 5200 2200 50  0000 C CNN
F 2 "Package_SO:TSSOP-16_4.4x5mm_P0.65mm" H 5200 2700 50  0001 C CNN
F 3 "" H 5200 2700 50  0001 C CNN
	1    5200 2700
	1    0    0    -1  
$EndComp
$Comp
L AddOn:AD57x1R U3
U 1 1 64F250F5
P 5200 4000
F 0 "U3" H 5200 4500 50  0000 C CNN
F 1 "AD5721RBRUZ" H 5200 3500 50  0000 C CNN
F 2 "Package_SO:TSSOP-16_4.4x5mm_P0.65mm" H 5200 4000 50  0001 C CNN
F 3 "" H 5200 4000 50  0001 C CNN
	1    5200 4000
	1    0    0    -1  
$EndComp
$Comp
L AddOn:AD57x1R U4
U 1 1 64F25C89
P 5200 5300
F 0 "U4" H 5200 5800 50  0000 C CNN
F 1 "AD5721RBRUZ" H 5200 4800 50  0000 C CNN
F 2 "Package_SO:TSSOP-16_4.4x5mm_P0.65mm" H 5200 5300 50  0001 C CNN
F 3 "" H 5200 5300 50  0001 C CNN
	1    5200 5300
	1    0    0    -1  
$EndComp
$Comp
L AddOn:AD57x1R U5
U 1 1 64F2642A
P 5200 6600
F 0 "U5" H 5200 7100 50  0000 C CNN
F 1 "AD5721RBRUZ" H 5200 6100 50  0000 C CNN
F 2 "Package_SO:TSSOP-16_4.4x5mm_P0.65mm" H 5200 6600 50  0001 C CNN
F 3 "" H 5200 6600 50  0001 C CNN
	1    5200 6600
	1    0    0    -1  
$EndComp
Text Label 1450 5200 0    50   ~ 0
X_OUT+
Text Label 2550 5200 0    50   ~ 0
X_OUT-
Text Label 1450 5300 0    50   ~ 0
Y_OUT+
Text Label 2550 5300 0    50   ~ 0
Y_OUT-
NoConn ~ 1900 5400
NoConn ~ 2400 5400
Text Label 1450 5500 0    50   ~ 0
ILOCK
Text Label 2550 5500 0    50   ~ 0
ILOCK
Text Label 1450 5600 0    50   ~ 0
R_OUT+
Text Label 1450 5700 0    50   ~ 0
G_OUT+
Text Label 1450 5800 0    50   ~ 0
B_OUT+
Text Label 2550 5600 0    50   ~ 0
R_OUT-
Text Label 2550 5700 0    50   ~ 0
G_OUT-
Text Label 2550 5800 0    50   ~ 0
B_OUT-
NoConn ~ 1900 5900
NoConn ~ 1900 6000
NoConn ~ 1900 6100
NoConn ~ 1900 6200
NoConn ~ 2400 5900
NoConn ~ 2400 6000
NoConn ~ 2400 6100
NoConn ~ 2400 6200
NoConn ~ 2400 6400
NoConn ~ 1900 6300
Text Label 1450 6400 0    50   ~ 0
SHUTTER
Wire Wire Line
	1900 5200 1400 5200
Wire Wire Line
	1400 5300 1900 5300
Wire Wire Line
	1900 5500 1400 5500
Wire Wire Line
	1400 5600 1900 5600
Wire Wire Line
	1900 5700 1400 5700
Wire Wire Line
	1400 5800 1900 5800
Wire Wire Line
	1900 6400 1400 6400
Wire Wire Line
	2400 5200 2900 5200
Wire Wire Line
	2400 5300 2900 5300
Wire Wire Line
	2400 5500 2900 5500
Wire Wire Line
	2400 5600 2900 5600
Wire Wire Line
	2400 5700 2900 5700
Wire Wire Line
	2400 5800 2900 5800
Wire Wire Line
	2400 6300 2900 6300
$Comp
L power:GND #PWR0101
U 1 1 64F477DA
P 2900 5600
F 0 "#PWR0101" H 2900 5350 50  0001 C CNN
F 1 "GND" V 2905 5472 50  0000 R CNN
F 2 "" H 2900 5600 50  0001 C CNN
F 3 "" H 2900 5600 50  0001 C CNN
	1    2900 5600
	0    -1   -1   0   
$EndComp
$Comp
L power:GND #PWR0102
U 1 1 64F47ADC
P 2900 5700
F 0 "#PWR0102" H 2900 5450 50  0001 C CNN
F 1 "GND" V 2905 5572 50  0000 R CNN
F 2 "" H 2900 5700 50  0001 C CNN
F 3 "" H 2900 5700 50  0001 C CNN
	1    2900 5700
	0    -1   -1   0   
$EndComp
$Comp
L power:GND #PWR0103
U 1 1 64F47DC7
P 2900 5800
F 0 "#PWR0103" H 2900 5550 50  0001 C CNN
F 1 "GND" V 2905 5672 50  0000 R CNN
F 2 "" H 2900 5800 50  0001 C CNN
F 3 "" H 2900 5800 50  0001 C CNN
	1    2900 5800
	0    -1   -1   0   
$EndComp
$Comp
L power:GND #PWR0104
U 1 1 64F4805C
P 2900 6300
F 0 "#PWR0104" H 2900 6050 50  0001 C CNN
F 1 "GND" V 2905 6172 50  0000 R CNN
F 2 "" H 2900 6300 50  0001 C CNN
F 3 "" H 2900 6300 50  0001 C CNN
	1    2900 6300
	0    -1   -1   0   
$EndComp
Text Label 4400 1650 0    50   ~ 0
X_OUT+
Text Label 4400 2950 0    50   ~ 0
Y_OUT+
Text Label 4400 4250 0    50   ~ 0
R_OUT+
Text Label 4400 5550 0    50   ~ 0
G_OUT+
Text Label 4400 6850 0    50   ~ 0
B_OUT+
Wire Wire Line
	4800 4250 4300 4250
Wire Wire Line
	4800 5550 4300 5550
Wire Wire Line
	4800 6850 4300 6850
NoConn ~ 4800 1050
NoConn ~ 4800 2350
NoConn ~ 4800 3650
NoConn ~ 4800 4950
NoConn ~ 4800 6250
NoConn ~ 4800 1350
NoConn ~ 4800 2650
NoConn ~ 4800 3950
NoConn ~ 4800 5250
NoConn ~ 4800 6550
Text Label 7900 1350 0    50   ~ 0
SCK
Text Label 8900 1450 0    50   ~ 0
~SYNC
Text Label 7900 1450 0    50   ~ 0
SDI
Wire Wire Line
	8300 1350 7800 1350
Wire Wire Line
	9300 1450 8800 1450
Wire Wire Line
	8300 1450 7800 1450
Wire Wire Line
	8300 1250 7800 1250
$Comp
L power:GND #PWR0105
U 1 1 64F80AE0
P 4300 1450
F 0 "#PWR0105" H 4300 1200 50  0001 C CNN
F 1 "GND" V 4305 1322 50  0000 R CNN
F 2 "" H 4300 1450 50  0001 C CNN
F 3 "" H 4300 1450 50  0001 C CNN
	1    4300 1450
	0    1    1    0   
$EndComp
$Comp
L power:GND #PWR0106
U 1 1 64F8274B
P 4300 2750
F 0 "#PWR0106" H 4300 2500 50  0001 C CNN
F 1 "GND" V 4305 2622 50  0000 R CNN
F 2 "" H 4300 2750 50  0001 C CNN
F 3 "" H 4300 2750 50  0001 C CNN
	1    4300 2750
	0    1    1    0   
$EndComp
NoConn ~ 4800 1150
NoConn ~ 4800 1250
NoConn ~ 4800 2450
NoConn ~ 4800 2550
NoConn ~ 4800 3750
NoConn ~ 4800 3850
NoConn ~ 4800 5050
NoConn ~ 4800 5150
NoConn ~ 4800 6350
NoConn ~ 4800 6450
$Comp
L power:GND #PWR0107
U 1 1 64F8800A
P 4300 4050
F 0 "#PWR0107" H 4300 3800 50  0001 C CNN
F 1 "GND" V 4305 3922 50  0000 R CNN
F 2 "" H 4300 4050 50  0001 C CNN
F 3 "" H 4300 4050 50  0001 C CNN
	1    4300 4050
	0    1    1    0   
$EndComp
$Comp
L power:GND #PWR0108
U 1 1 64F89A14
P 4300 4150
F 0 "#PWR0108" H 4300 3900 50  0001 C CNN
F 1 "GND" V 4305 4022 50  0000 R CNN
F 2 "" H 4300 4150 50  0001 C CNN
F 3 "" H 4300 4150 50  0001 C CNN
	1    4300 4150
	0    1    1    0   
$EndComp
$Comp
L power:GND #PWR0109
U 1 1 64F89CA5
P 4300 5450
F 0 "#PWR0109" H 4300 5200 50  0001 C CNN
F 1 "GND" V 4305 5322 50  0000 R CNN
F 2 "" H 4300 5450 50  0001 C CNN
F 3 "" H 4300 5450 50  0001 C CNN
	1    4300 5450
	0    1    1    0   
$EndComp
$Comp
L power:GND #PWR0110
U 1 1 64F8A089
P 4300 5350
F 0 "#PWR0110" H 4300 5100 50  0001 C CNN
F 1 "GND" V 4305 5222 50  0000 R CNN
F 2 "" H 4300 5350 50  0001 C CNN
F 3 "" H 4300 5350 50  0001 C CNN
	1    4300 5350
	0    1    1    0   
$EndComp
$Comp
L power:GND #PWR0111
U 1 1 64F8A2A8
P 4300 6750
F 0 "#PWR0111" H 4300 6500 50  0001 C CNN
F 1 "GND" V 4305 6622 50  0000 R CNN
F 2 "" H 4300 6750 50  0001 C CNN
F 3 "" H 4300 6750 50  0001 C CNN
	1    4300 6750
	0    1    1    0   
$EndComp
$Comp
L power:GND #PWR0112
U 1 1 64F8A618
P 4300 6650
F 0 "#PWR0112" H 4300 6400 50  0001 C CNN
F 1 "GND" V 4305 6522 50  0000 R CNN
F 2 "" H 4300 6650 50  0001 C CNN
F 3 "" H 4300 6650 50  0001 C CNN
	1    4300 6650
	0    1    1    0   
$EndComp
Wire Wire Line
	4800 1450 4300 1450
Wire Wire Line
	4300 2750 4800 2750
Wire Wire Line
	4800 4050 4300 4050
Wire Wire Line
	4800 4150 4300 4150
Wire Wire Line
	4800 5350 4300 5350
Wire Wire Line
	4800 5450 4300 5450
Wire Wire Line
	4800 6650 4300 6650
Wire Wire Line
	4800 6750 4300 6750
Text Label 8900 1550 0    50   ~ 0
SHTR_IN
Wire Wire Line
	6100 6250 5600 6250
Wire Wire Line
	6100 3650 5600 3650
Wire Wire Line
	6100 4950 5600 4950
Wire Wire Line
	6100 2350 5600 2350
Wire Wire Line
	6100 1050 5600 1050
Text Label 5750 1250 0    50   ~ 0
SCK
Text Label 5750 1350 0    50   ~ 0
~SYNC
Text Label 5750 2550 0    50   ~ 0
SCK
Text Label 5750 2650 0    50   ~ 0
~SYNC
Text Label 5750 3850 0    50   ~ 0
SCK
Text Label 5750 3950 0    50   ~ 0
~SYNC
Text Label 5750 5150 0    50   ~ 0
SCK
Text Label 5750 5250 0    50   ~ 0
~SYNC
Text Label 5750 6450 0    50   ~ 0
SCK
Text Label 5750 6550 0    50   ~ 0
~SYNC
Wire Wire Line
	8800 1250 9300 1250
Wire Wire Line
	5600 1250 6100 1250
Wire Wire Line
	5600 1350 6100 1350
Wire Wire Line
	5600 2550 6100 2550
Wire Wire Line
	5600 2650 6100 2650
Wire Wire Line
	5600 3850 6100 3850
Wire Wire Line
	5600 3950 6100 3950
Wire Wire Line
	5600 5150 6100 5150
Wire Wire Line
	5600 5250 6100 5250
Wire Wire Line
	5600 6450 6100 6450
Wire Wire Line
	5600 6550 6100 6550
$Comp
L AddOn:DVCC #PWR0114
U 1 1 64FDA22B
P 6100 1150
F 0 "#PWR0114" H 6100 1000 50  0001 C CNN
F 1 "DVCC" V 6097 1370 50  0000 C CNN
F 2 "" H 6100 1150 50  0001 C CNN
F 3 "" H 6100 1150 50  0001 C CNN
	1    6100 1150
	0    1    1    0   
$EndComp
$Comp
L power:GND #PWR0115
U 1 1 64F75A16
P 6100 1050
F 0 "#PWR0115" H 6100 800 50  0001 C CNN
F 1 "GND" V 6097 850 50  0000 C CNN
F 2 "" H 6100 1050 50  0001 C CNN
F 3 "" H 6100 1050 50  0001 C CNN
	1    6100 1050
	0    -1   -1   0   
$EndComp
$Comp
L AddOn:DVCC #PWR0116
U 1 1 64FDE895
P 6100 2450
F 0 "#PWR0116" H 6100 2300 50  0001 C CNN
F 1 "DVCC" V 6097 2670 50  0000 C CNN
F 2 "" H 6100 2450 50  0001 C CNN
F 3 "" H 6100 2450 50  0001 C CNN
	1    6100 2450
	0    1    1    0   
$EndComp
$Comp
L power:GND #PWR0117
U 1 1 64FDE89B
P 6100 2350
F 0 "#PWR0117" H 6100 2100 50  0001 C CNN
F 1 "GND" V 6097 2150 50  0000 C CNN
F 2 "" H 6100 2350 50  0001 C CNN
F 3 "" H 6100 2350 50  0001 C CNN
	1    6100 2350
	0    -1   -1   0   
$EndComp
$Comp
L AddOn:DVCC #PWR0118
U 1 1 64FE076E
P 6100 3750
F 0 "#PWR0118" H 6100 3600 50  0001 C CNN
F 1 "DVCC" V 6097 3970 50  0000 C CNN
F 2 "" H 6100 3750 50  0001 C CNN
F 3 "" H 6100 3750 50  0001 C CNN
	1    6100 3750
	0    1    1    0   
$EndComp
$Comp
L power:GND #PWR0119
U 1 1 64FE0774
P 6100 3650
F 0 "#PWR0119" H 6100 3400 50  0001 C CNN
F 1 "GND" V 6097 3450 50  0000 C CNN
F 2 "" H 6100 3650 50  0001 C CNN
F 3 "" H 6100 3650 50  0001 C CNN
	1    6100 3650
	0    -1   -1   0   
$EndComp
$Comp
L AddOn:DVCC #PWR0120
U 1 1 64FE2D1B
P 6100 5050
F 0 "#PWR0120" H 6100 4900 50  0001 C CNN
F 1 "DVCC" V 6097 5270 50  0000 C CNN
F 2 "" H 6100 5050 50  0001 C CNN
F 3 "" H 6100 5050 50  0001 C CNN
	1    6100 5050
	0    1    1    0   
$EndComp
$Comp
L power:GND #PWR0121
U 1 1 64FE2D21
P 6100 4950
F 0 "#PWR0121" H 6100 4700 50  0001 C CNN
F 1 "GND" V 6097 4750 50  0000 C CNN
F 2 "" H 6100 4950 50  0001 C CNN
F 3 "" H 6100 4950 50  0001 C CNN
	1    6100 4950
	0    -1   -1   0   
$EndComp
$Comp
L AddOn:DVCC #PWR0122
U 1 1 64FE44FC
P 6100 6350
F 0 "#PWR0122" H 6100 6200 50  0001 C CNN
F 1 "DVCC" V 6097 6570 50  0000 C CNN
F 2 "" H 6100 6350 50  0001 C CNN
F 3 "" H 6100 6350 50  0001 C CNN
	1    6100 6350
	0    1    1    0   
$EndComp
$Comp
L power:GND #PWR0123
U 1 1 64FE4502
P 6100 6250
F 0 "#PWR0123" H 6100 6000 50  0001 C CNN
F 1 "GND" V 6097 6050 50  0000 C CNN
F 2 "" H 6100 6250 50  0001 C CNN
F 3 "" H 6100 6250 50  0001 C CNN
	1    6100 6250
	0    -1   -1   0   
$EndComp
$Comp
L power:GND #PWR0124
U 1 1 64FE5711
P 7800 1250
F 0 "#PWR0124" H 7800 1000 50  0001 C CNN
F 1 "GND" V 7797 1050 50  0000 C CNN
F 2 "" H 7800 1250 50  0001 C CNN
F 3 "" H 7800 1250 50  0001 C CNN
	1    7800 1250
	0    1    1    0   
$EndComp
$Comp
L AddOn:DVCC #PWR0125
U 1 1 64FEB64A
P 9300 1250
F 0 "#PWR0125" H 9300 1100 50  0001 C CNN
F 1 "DVCC" V 9297 1470 50  0000 C CNN
F 2 "" H 9300 1250 50  0001 C CNN
F 3 "" H 9300 1250 50  0001 C CNN
	1    9300 1250
	0    1    1    0   
$EndComp
Wire Wire Line
	6100 1150 5600 1150
Wire Wire Line
	5600 2450 6100 2450
Wire Wire Line
	6100 3750 5600 3750
Wire Wire Line
	6100 5050 5600 5050
Wire Wire Line
	6100 6350 5600 6350
Text Label 5750 1450 0    50   ~ 0
SDI
Wire Wire Line
	5600 1450 6100 1450
Wire Wire Line
	5600 1650 6500 1650
Wire Wire Line
	6500 1650 6500 2750
Wire Wire Line
	6500 2750 5600 2750
Wire Wire Line
	5600 2950 6500 2950
Wire Wire Line
	6500 2950 6500 4050
Wire Wire Line
	6500 4050 5600 4050
Wire Wire Line
	5600 4250 6500 4250
Wire Wire Line
	6500 4250 6500 5350
Wire Wire Line
	6500 5350 5600 5350
Wire Wire Line
	5600 5550 6500 5550
Wire Wire Line
	6500 5550 6500 6650
Wire Wire Line
	6500 6650 5600 6650
$Comp
L power:VDD #PWR0126
U 1 1 65043538
P 4300 1750
F 0 "#PWR0126" H 4300 1600 50  0001 C CNN
F 1 "VDD" V 4300 1950 50  0000 C CNN
F 2 "" H 4300 1750 50  0001 C CNN
F 3 "" H 4300 1750 50  0001 C CNN
	1    4300 1750
	0    -1   -1   0   
$EndComp
$Comp
L power:VSS #PWR0127
U 1 1 65043EF9
P 4300 1550
F 0 "#PWR0127" H 4300 1400 50  0001 C CNN
F 1 "VSS" V 4300 1750 50  0000 C CNN
F 2 "" H 4300 1550 50  0001 C CNN
F 3 "" H 4300 1550 50  0001 C CNN
	1    4300 1550
	0    -1   -1   0   
$EndComp
$Comp
L power:VSS #PWR0128
U 1 1 65049079
P 4300 2850
F 0 "#PWR0128" H 4300 2700 50  0001 C CNN
F 1 "VSS" V 4300 3050 50  0000 C CNN
F 2 "" H 4300 2850 50  0001 C CNN
F 3 "" H 4300 2850 50  0001 C CNN
	1    4300 2850
	0    -1   -1   0   
$EndComp
$Comp
L power:VDD #PWR0129
U 1 1 650495DD
P 4300 3050
F 0 "#PWR0129" H 4300 2900 50  0001 C CNN
F 1 "VDD" V 4300 3250 50  0000 C CNN
F 2 "" H 4300 3050 50  0001 C CNN
F 3 "" H 4300 3050 50  0001 C CNN
	1    4300 3050
	0    -1   -1   0   
$EndComp
Wire Wire Line
	4300 1550 4800 1550
Wire Wire Line
	4800 1750 4300 1750
Wire Wire Line
	4300 2850 4800 2850
Wire Wire Line
	4800 3050 4300 3050
$Comp
L Connector_Generic:Conn_02x13_Odd_Even J2
U 1 1 650616C2
P 2100 5800
F 0 "J2" H 2150 6617 50  0000 C CNN
F 1 "Header 2x13" H 2150 5050 50  0000 C CNN
F 2 "Connector_IDC:IDC-Header_2x13_P2.54mm_Vertical" H 2100 5800 50  0001 C CNN
F 3 "~" H 2100 5800 50  0001 C CNN
	1    2100 5800
	1    0    0    -1  
$EndComp
$Comp
L Amplifier_Operational:TL082 U6
U 2 1 6509287D
P 3000 2850
F 0 "U6" H 3000 3200 50  0000 C CNN
F 1 "TL082CPT" H 3000 3100 50  0000 C CNN
F 2 "Package_SO:TSSOP-8_4.4x3mm_P0.65mm" H 3000 2850 50  0001 C CNN
F 3 "http://www.ti.com/lit/ds/symlink/tl081.pdf" H 3000 2850 50  0001 C CNN
	2    3000 2850
	-1   0    0    -1  
$EndComp
$Comp
L Amplifier_Operational:TL082 U6
U 3 1 650948A2
P 1900 2200
F 0 "U6" H 1858 2246 50  0000 L CNN
F 1 "TL082CPT" H 1858 2155 50  0000 L CNN
F 2 "Package_SO:TSSOP-8_4.4x3mm_P0.65mm" H 1900 2200 50  0001 C CNN
F 3 "http://www.ti.com/lit/ds/symlink/tl081.pdf" H 1900 2200 50  0001 C CNN
	3    1900 2200
	1    0    0    -1  
$EndComp
$Comp
L Device:R R1
U 1 1 650B2F98
P 3550 1650
F 0 "R1" V 3650 1650 50  0000 C CNN
F 1 "10k" V 3450 1650 50  0000 C CNN
F 2 "Resistor_SMD:R_0603_1608Metric" V 3480 1650 50  0001 C CNN
F 3 "~" H 3550 1650 50  0001 C CNN
	1    3550 1650
	0    -1   -1   0   
$EndComp
$Comp
L Device:R R2
U 1 1 650BC313
P 3000 1950
F 0 "R2" V 3100 1950 50  0000 C CNN
F 1 "10k" V 2900 1950 50  0000 C CNN
F 2 "Resistor_SMD:R_0603_1608Metric" V 2930 1950 50  0001 C CNN
F 3 "~" H 3000 1950 50  0001 C CNN
	1    3000 1950
	0    -1   -1   0   
$EndComp
Wire Wire Line
	2850 1950 2700 1950
$Comp
L power:GND #PWR0130
U 1 1 650D5426
P 3300 1450
F 0 "#PWR0130" H 3300 1200 50  0001 C CNN
F 1 "GND" V 3297 1250 50  0000 C CNN
F 2 "" H 3300 1450 50  0001 C CNN
F 3 "" H 3300 1450 50  0001 C CNN
	1    3300 1450
	0    -1   -1   0   
$EndComp
$Comp
L Device:R R3
U 1 1 650D5C38
P 3550 2950
F 0 "R3" V 3650 2950 50  0000 C CNN
F 1 "10k" V 3450 2950 50  0000 C CNN
F 2 "Resistor_SMD:R_0603_1608Metric" V 3480 2950 50  0001 C CNN
F 3 "~" H 3550 2950 50  0001 C CNN
	1    3550 2950
	0    -1   -1   0   
$EndComp
$Comp
L Device:R R4
U 1 1 650E2D25
P 3000 3250
F 0 "R4" V 3100 3250 50  0000 C CNN
F 1 "10k" V 2900 3250 50  0000 C CNN
F 2 "Resistor_SMD:R_0603_1608Metric" V 2930 3250 50  0001 C CNN
F 3 "~" H 3000 3250 50  0001 C CNN
	1    3000 3250
	0    -1   -1   0   
$EndComp
Wire Wire Line
	2850 3250 2700 3250
Wire Wire Line
	4800 1650 3700 1650
Wire Wire Line
	4800 2950 3700 2950
Text Label 2300 2850 0    50   ~ 0
Y_OUT-
Text Label 2300 1550 0    50   ~ 0
X_OUT-
Wire Wire Line
	2700 1550 2200 1550
Wire Wire Line
	2700 2850 2200 2850
$Comp
L power:GND #PWR0131
U 1 1 6512EEDF
P 3300 2750
F 0 "#PWR0131" H 3300 2500 50  0001 C CNN
F 1 "GND" V 3297 2550 50  0000 C CNN
F 2 "" H 3300 2750 50  0001 C CNN
F 3 "" H 3300 2750 50  0001 C CNN
	1    3300 2750
	0    -1   -1   0   
$EndComp
Wire Wire Line
	3400 2950 3350 2950
Wire Wire Line
	3350 2950 3350 3250
Wire Wire Line
	3350 3250 3150 3250
Connection ~ 3350 2950
Wire Wire Line
	3350 2950 3300 2950
Wire Wire Line
	3400 1650 3350 1650
Wire Wire Line
	3350 1650 3350 1950
Wire Wire Line
	3350 1950 3150 1950
Connection ~ 3350 1650
Wire Wire Line
	3350 1650 3300 1650
$Comp
L power:VSS #PWR0132
U 1 1 6514704A
P 1800 2500
F 0 "#PWR0132" H 1800 2350 50  0001 C CNN
F 1 "VSS" V 1800 2700 50  0000 C CNN
F 2 "" H 1800 2500 50  0001 C CNN
F 3 "" H 1800 2500 50  0001 C CNN
	1    1800 2500
	-1   0    0    1   
$EndComp
$Comp
L power:VDD #PWR0133
U 1 1 65147BB0
P 1800 1900
F 0 "#PWR0133" H 1800 1750 50  0001 C CNN
F 1 "VDD" V 1800 2100 50  0000 C CNN
F 2 "" H 1800 1900 50  0001 C CNN
F 3 "" H 1800 1900 50  0001 C CNN
	1    1800 1900
	1    0    0    -1  
$EndComp
$Comp
L power:GND #PWR0113
U 1 1 6519BFF1
P 7750 4500
F 0 "#PWR0113" H 7750 4250 50  0001 C CNN
F 1 "GND" V 7747 4300 50  0000 C CNN
F 2 "" H 7750 4500 50  0001 C CNN
F 3 "" H 7750 4500 50  0001 C CNN
	1    7750 4500
	0    1    1    0   
$EndComp
$Comp
L power:GND #PWR0134
U 1 1 6519D59A
P 8550 4400
F 0 "#PWR0134" H 8550 4150 50  0001 C CNN
F 1 "GND" V 8547 4200 50  0000 C CNN
F 2 "" H 8550 4400 50  0001 C CNN
F 3 "" H 8550 4400 50  0001 C CNN
	1    8550 4400
	0    -1   -1   0   
$EndComp
$Comp
L power:VSS #PWR0135
U 1 1 651A0119
P 8550 4500
F 0 "#PWR0135" H 8550 4350 50  0001 C CNN
F 1 "VSS" V 8550 4700 50  0000 C CNN
F 2 "" H 8550 4500 50  0001 C CNN
F 3 "" H 8550 4500 50  0001 C CNN
	1    8550 4500
	0    1    1    0   
$EndComp
$Comp
L power:VDD #PWR0136
U 1 1 651B02C0
P 4300 4350
F 0 "#PWR0136" H 4300 4200 50  0001 C CNN
F 1 "VDD" V 4300 4550 50  0000 C CNN
F 2 "" H 4300 4350 50  0001 C CNN
F 3 "" H 4300 4350 50  0001 C CNN
	1    4300 4350
	0    -1   -1   0   
$EndComp
Wire Wire Line
	4800 4350 4300 4350
$Comp
L power:VDD #PWR0137
U 1 1 651B68B4
P 4300 5650
F 0 "#PWR0137" H 4300 5500 50  0001 C CNN
F 1 "VDD" V 4300 5850 50  0000 C CNN
F 2 "" H 4300 5650 50  0001 C CNN
F 3 "" H 4300 5650 50  0001 C CNN
	1    4300 5650
	0    -1   -1   0   
$EndComp
Wire Wire Line
	4800 5650 4300 5650
$Comp
L power:VDD #PWR0138
U 1 1 651BA449
P 4300 6950
F 0 "#PWR0138" H 4300 6800 50  0001 C CNN
F 1 "VDD" V 4300 7150 50  0000 C CNN
F 2 "" H 4300 6950 50  0001 C CNN
F 3 "" H 4300 6950 50  0001 C CNN
	1    4300 6950
	0    -1   -1   0   
$EndComp
Wire Wire Line
	4800 6950 4300 6950
$Comp
L power:VDD #PWR0139
U 1 1 651C19C6
P 8550 4300
F 0 "#PWR0139" H 8550 4150 50  0001 C CNN
F 1 "VDD" V 8550 4500 50  0000 C CNN
F 2 "" H 8550 4300 50  0001 C CNN
F 3 "" H 8550 4300 50  0001 C CNN
	1    8550 4300
	0    1    1    0   
$EndComp
$Comp
L 74xGxx:74LVC1G125 U7
U 1 1 651DC99F
P 8200 2700
F 0 "U7" H 8250 2550 50  0000 C CNN
F 1 "74HCT1G125GV" H 8350 2450 50  0000 C CNN
F 2 "Package_TO_SOT_SMD:SOT-23-5" H 8200 2700 50  0001 C CNN
F 3 "http://www.ti.com/lit/sg/scyt129e/scyt129e.pdf" H 8200 2700 50  0001 C CNN
	1    8200 2700
	1    0    0    -1  
$EndComp
$Comp
L power:VCC #PWR0140
U 1 1 651DFE63
P 9300 1650
F 0 "#PWR0140" H 9300 1500 50  0001 C CNN
F 1 "VCC" V 9315 1778 50  0000 L CNN
F 2 "" H 9300 1650 50  0001 C CNN
F 3 "" H 9300 1650 50  0001 C CNN
	1    9300 1650
	0    1    1    0   
$EndComp
$Comp
L power:VCC #PWR0141
U 1 1 651EB25D
P 7750 4300
F 0 "#PWR0141" H 7750 4150 50  0001 C CNN
F 1 "VCC" V 7765 4427 50  0000 L CNN
F 2 "" H 7750 4300 50  0001 C CNN
F 3 "" H 7750 4300 50  0001 C CNN
	1    7750 4300
	0    -1   -1   0   
$EndComp
Wire Wire Line
	9300 1550 8800 1550
Text Label 7500 2700 0    50   ~ 0
SHTR_IN
Wire Wire Line
	7900 2700 7400 2700
Text Label 8550 2700 0    50   ~ 0
SHUTTER
Wire Wire Line
	8950 2700 8450 2700
$Comp
L Device:R R5
U 1 1 6521631E
P 7900 2950
F 0 "R5" V 8000 2950 50  0000 C CNN
F 1 "10k" V 7800 2950 50  0000 C CNN
F 2 "Resistor_SMD:R_0603_1608Metric" V 7830 2950 50  0001 C CNN
F 3 "~" H 7900 2950 50  0001 C CNN
	1    7900 2950
	1    0    0    -1  
$EndComp
$Comp
L power:GND #PWR0142
U 1 1 6521D0B2
P 7900 2450
F 0 "#PWR0142" H 7900 2200 50  0001 C CNN
F 1 "GND" V 7897 2250 50  0000 C CNN
F 2 "" H 7900 2450 50  0001 C CNN
F 3 "" H 7900 2450 50  0001 C CNN
	1    7900 2450
	0    1    1    0   
$EndComp
Wire Wire Line
	7900 2450 8200 2450
Wire Wire Line
	8200 2450 8200 2500
$Comp
L power:GND #PWR0143
U 1 1 6522ABA9
P 7900 3100
F 0 "#PWR0143" H 7900 2850 50  0001 C CNN
F 1 "GND" V 7897 2900 50  0000 C CNN
F 2 "" H 7900 3100 50  0001 C CNN
F 3 "" H 7900 3100 50  0001 C CNN
	1    7900 3100
	1    0    0    -1  
$EndComp
Wire Wire Line
	7900 2800 7900 2700
Connection ~ 7900 2700
$Comp
L Converter_DCDC:IA0509S PS1
U 1 1 6524B366
P 8150 4400
F 0 "PS1" H 8150 4767 50  0000 C CNN
F 1 "IA0509S" H 8150 4676 50  0000 C CNN
F 2 "Converter_DCDC:Converter_DCDC_XP_POWER-IAxxxxS_THT" H 7100 4150 50  0001 L CNN
F 3 "https://www.xppower.com/pdfs/SF_IA.pdf" H 9200 4100 50  0001 L CNN
	1    8150 4400
	1    0    0    -1  
$EndComp
$Comp
L Mechanical:MountingHole H1
U 1 1 652D58DF
P 7500 5900
F 0 "H1" H 7600 5946 50  0000 L CNN
F 1 "Mount" H 7600 5855 50  0000 L CNN
F 2 "MountingHole:MountingHole_2.2mm_M2" H 7500 5900 50  0001 C CNN
F 3 "~" H 7500 5900 50  0001 C CNN
	1    7500 5900
	1    0    0    -1  
$EndComp
$Comp
L Mechanical:MountingHole H2
U 1 1 652D69DD
P 7500 6200
F 0 "H2" H 7600 6246 50  0000 L CNN
F 1 "Mount" H 7600 6155 50  0000 L CNN
F 2 "MountingHole:MountingHole_2.2mm_M2" H 7500 6200 50  0001 C CNN
F 3 "~" H 7500 6200 50  0001 C CNN
	1    7500 6200
	1    0    0    -1  
$EndComp
$Comp
L Mechanical:MountingHole H3
U 1 1 652D6D10
P 8500 5900
F 0 "H3" H 8600 5946 50  0000 L CNN
F 1 "Mount" H 8600 5855 50  0000 L CNN
F 2 "MountingHole:MountingHole_2.2mm_M2" H 8500 5900 50  0001 C CNN
F 3 "~" H 8500 5900 50  0001 C CNN
	1    8500 5900
	1    0    0    -1  
$EndComp
$Comp
L Mechanical:MountingHole H4
U 1 1 652D70A4
P 8500 6200
F 0 "H4" H 8600 6246 50  0000 L CNN
F 1 "Mount" H 8600 6155 50  0000 L CNN
F 2 "MountingHole:MountingHole_2.2mm_M2" H 8500 6200 50  0001 C CNN
F 3 "~" H 8500 6200 50  0001 C CNN
	1    8500 6200
	1    0    0    -1  
$EndComp
$Comp
L Connector_Generic:Conn_02x05_Odd_Even J1
U 1 1 65382A78
P 8500 1450
F 0 "J1" H 8550 1750 50  0000 C CNN
F 1 "Header 2x5" H 8550 1150 50  0000 C CNN
F 2 "Connector_IDC:IDC-Header_2x05_P2.54mm_Vertical" H 8500 1450 50  0001 C CNN
F 3 "~" H 8500 1450 50  0001 C CNN
	1    8500 1450
	1    0    0    -1  
$EndComp
Wire Wire Line
	8300 1650 7800 1650
$Comp
L power:GND #PWR0144
U 1 1 65389B56
P 7800 1650
F 0 "#PWR0144" H 7800 1400 50  0001 C CNN
F 1 "GND" V 7797 1450 50  0000 C CNN
F 2 "" H 7800 1650 50  0001 C CNN
F 3 "" H 7800 1650 50  0001 C CNN
	1    7800 1650
	0    1    1    0   
$EndComp
Text Label 8900 1350 0    50   ~ 0
SDO
Wire Wire Line
	8800 1350 9300 1350
Wire Wire Line
	9300 1650 8800 1650
NoConn ~ 8300 1550
Wire Wire Line
	6100 1550 5600 1550
$Comp
L power:GND #PWR0145
U 1 1 65444678
P 6100 1550
F 0 "#PWR0145" H 6100 1300 50  0001 C CNN
F 1 "GND" V 6097 1350 50  0000 C CNN
F 2 "" H 6100 1550 50  0001 C CNN
F 3 "" H 6100 1550 50  0001 C CNN
	1    6100 1550
	0    -1   -1   0   
$EndComp
Wire Wire Line
	6100 2850 5600 2850
$Comp
L power:GND #PWR0146
U 1 1 65448A94
P 6100 2850
F 0 "#PWR0146" H 6100 2600 50  0001 C CNN
F 1 "GND" V 6097 2650 50  0000 C CNN
F 2 "" H 6100 2850 50  0001 C CNN
F 3 "" H 6100 2850 50  0001 C CNN
	1    6100 2850
	0    -1   -1   0   
$EndComp
Wire Wire Line
	6100 4150 5600 4150
$Comp
L power:GND #PWR0147
U 1 1 6544D07C
P 6100 4150
F 0 "#PWR0147" H 6100 3900 50  0001 C CNN
F 1 "GND" V 6097 3950 50  0000 C CNN
F 2 "" H 6100 4150 50  0001 C CNN
F 3 "" H 6100 4150 50  0001 C CNN
	1    6100 4150
	0    -1   -1   0   
$EndComp
Wire Wire Line
	6100 5450 5600 5450
$Comp
L power:GND #PWR0148
U 1 1 65452B75
P 6100 5450
F 0 "#PWR0148" H 6100 5200 50  0001 C CNN
F 1 "GND" V 6097 5250 50  0000 C CNN
F 2 "" H 6100 5450 50  0001 C CNN
F 3 "" H 6100 5450 50  0001 C CNN
	1    6100 5450
	0    -1   -1   0   
$EndComp
Wire Wire Line
	6100 6750 5600 6750
$Comp
L power:GND #PWR0149
U 1 1 65457162
P 6100 6750
F 0 "#PWR0149" H 6100 6500 50  0001 C CNN
F 1 "GND" V 6097 6550 50  0000 C CNN
F 2 "" H 6100 6750 50  0001 C CNN
F 3 "" H 6100 6750 50  0001 C CNN
	1    6100 6750
	0    -1   -1   0   
$EndComp
Text Label 5750 6850 0    50   ~ 0
SDO
Wire Wire Line
	5600 6850 6100 6850
Text Notes 1250 4700 0    50   ~ 0
Note: Outputs are designed for direct driver wiring.\nIn case of long cables, 100R series resistors must \nbe used to avoid ringing.
Text Notes 7100 5000 0    50   ~ 0
Note: Analog power may have to be redesigned for lower \ncost and lower noise. DAC/OP-Amp immunity to supply\nnoise (with regard to 16 Bit) hasn't been tested yet.
Text Notes 9750 1700 0    50   ~ 0
VCC = +5V
Text Notes 9750 1300 0    50   ~ 0
DVCC = 1.7V ... 5.5V
$Comp
L Device:C_Small C1
U 1 1 656F8514
P 9950 2750
F 0 "C1" H 10042 2796 50  0000 L CNN
F 1 "2u2" H 10042 2705 50  0000 L CNN
F 2 "Capacitor_SMD:C_0603_1608Metric" H 9950 2750 50  0001 C CNN
F 3 "~" H 9950 2750 50  0001 C CNN
	1    9950 2750
	1    0    0    -1  
$EndComp
$Comp
L Device:C_Small C2
U 1 1 656FDC19
P 10500 2750
F 0 "C2" H 10592 2796 50  0000 L CNN
F 1 "100n" H 10592 2705 50  0000 L CNN
F 2 "Capacitor_SMD:C_0603_1608Metric" H 10500 2750 50  0001 C CNN
F 3 "~" H 10500 2750 50  0001 C CNN
	1    10500 2750
	1    0    0    -1  
$EndComp
$Comp
L AddOn:DVCC #PWR0150
U 1 1 656FF93F
P 9950 2650
F 0 "#PWR0150" H 9950 2500 50  0001 C CNN
F 1 "DVCC" V 9947 2870 50  0000 C CNN
F 2 "" H 9950 2650 50  0001 C CNN
F 3 "" H 9950 2650 50  0001 C CNN
	1    9950 2650
	1    0    0    -1  
$EndComp
$Comp
L power:GND #PWR0151
U 1 1 657199C5
P 9950 2850
F 0 "#PWR0151" H 9950 2600 50  0001 C CNN
F 1 "GND" V 9947 2650 50  0000 C CNN
F 2 "" H 9950 2850 50  0001 C CNN
F 3 "" H 9950 2850 50  0001 C CNN
	1    9950 2850
	1    0    0    -1  
$EndComp
$Comp
L power:GND #PWR0152
U 1 1 657331DC
P 10500 2850
F 0 "#PWR0152" H 10500 2600 50  0001 C CNN
F 1 "GND" V 10497 2650 50  0000 C CNN
F 2 "" H 10500 2850 50  0001 C CNN
F 3 "" H 10500 2850 50  0001 C CNN
	1    10500 2850
	1    0    0    -1  
$EndComp
$Comp
L AddOn:DVCC #PWR0153
U 1 1 65733D50
P 10500 2650
F 0 "#PWR0153" H 10500 2500 50  0001 C CNN
F 1 "DVCC" V 10497 2870 50  0000 C CNN
F 2 "" H 10500 2650 50  0001 C CNN
F 3 "" H 10500 2650 50  0001 C CNN
	1    10500 2650
	1    0    0    -1  
$EndComp
$Comp
L Device:C_Small C3
U 1 1 657A1596
P 9950 4500
F 0 "C3" H 10042 4546 50  0000 L CNN
F 1 "2u2" H 10042 4455 50  0000 L CNN
F 2 "Capacitor_SMD:C_0603_1608Metric" H 9950 4500 50  0001 C CNN
F 3 "~" H 9950 4500 50  0001 C CNN
	1    9950 4500
	1    0    0    -1  
$EndComp
$Comp
L Device:C_Small C4
U 1 1 657A159C
P 10500 4500
F 0 "C4" H 10592 4546 50  0000 L CNN
F 1 "100n" H 10592 4455 50  0000 L CNN
F 2 "Capacitor_SMD:C_0603_1608Metric" H 10500 4500 50  0001 C CNN
F 3 "~" H 10500 4500 50  0001 C CNN
	1    10500 4500
	1    0    0    -1  
$EndComp
$Comp
L power:GND #PWR0154
U 1 1 657A15A8
P 9950 4600
F 0 "#PWR0154" H 9950 4350 50  0001 C CNN
F 1 "GND" V 9947 4400 50  0000 C CNN
F 2 "" H 9950 4600 50  0001 C CNN
F 3 "" H 9950 4600 50  0001 C CNN
	1    9950 4600
	1    0    0    -1  
$EndComp
$Comp
L power:GND #PWR0155
U 1 1 657A15AE
P 10500 4600
F 0 "#PWR0155" H 10500 4350 50  0001 C CNN
F 1 "GND" V 10497 4400 50  0000 C CNN
F 2 "" H 10500 4600 50  0001 C CNN
F 3 "" H 10500 4600 50  0001 C CNN
	1    10500 4600
	1    0    0    -1  
$EndComp
$Comp
L Device:C_Small C5
U 1 1 657A700A
P 9950 5700
F 0 "C5" H 10042 5746 50  0000 L CNN
F 1 "2u2" H 10042 5655 50  0000 L CNN
F 2 "Capacitor_SMD:C_0603_1608Metric" H 9950 5700 50  0001 C CNN
F 3 "~" H 9950 5700 50  0001 C CNN
	1    9950 5700
	1    0    0    -1  
$EndComp
$Comp
L Device:C_Small C6
U 1 1 657A7010
P 10500 5700
F 0 "C6" H 10592 5746 50  0000 L CNN
F 1 "100n" H 10592 5655 50  0000 L CNN
F 2 "Capacitor_SMD:C_0603_1608Metric" H 10500 5700 50  0001 C CNN
F 3 "~" H 10500 5700 50  0001 C CNN
	1    10500 5700
	1    0    0    -1  
$EndComp
$Comp
L power:GND #PWR0156
U 1 1 657A701C
P 9950 5800
F 0 "#PWR0156" H 9950 5550 50  0001 C CNN
F 1 "GND" V 9947 5600 50  0000 C CNN
F 2 "" H 9950 5800 50  0001 C CNN
F 3 "" H 9950 5800 50  0001 C CNN
	1    9950 5800
	1    0    0    -1  
$EndComp
$Comp
L power:GND #PWR0157
U 1 1 657A7022
P 10500 5800
F 0 "#PWR0157" H 10500 5550 50  0001 C CNN
F 1 "GND" V 10497 5600 50  0000 C CNN
F 2 "" H 10500 5800 50  0001 C CNN
F 3 "" H 10500 5800 50  0001 C CNN
	1    10500 5800
	1    0    0    -1  
$EndComp
$Comp
L power:VDD #PWR0158
U 1 1 657E9D13
P 9950 4400
F 0 "#PWR0158" H 9950 4250 50  0001 C CNN
F 1 "VDD" V 9950 4600 50  0000 C CNN
F 2 "" H 9950 4400 50  0001 C CNN
F 3 "" H 9950 4400 50  0001 C CNN
	1    9950 4400
	1    0    0    -1  
$EndComp
$Comp
L power:VSS #PWR0159
U 1 1 657EA405
P 9950 5600
F 0 "#PWR0159" H 9950 5450 50  0001 C CNN
F 1 "VSS" V 9950 5800 50  0000 C CNN
F 2 "" H 9950 5600 50  0001 C CNN
F 3 "" H 9950 5600 50  0001 C CNN
	1    9950 5600
	1    0    0    -1  
$EndComp
$Comp
L power:VSS #PWR0160
U 1 1 6580B665
P 10500 5600
F 0 "#PWR0160" H 10500 5450 50  0001 C CNN
F 1 "VSS" V 10500 5800 50  0000 C CNN
F 2 "" H 10500 5600 50  0001 C CNN
F 3 "" H 10500 5600 50  0001 C CNN
	1    10500 5600
	1    0    0    -1  
$EndComp
$Comp
L power:VDD #PWR0161
U 1 1 6581269A
P 10500 4400
F 0 "#PWR0161" H 10500 4250 50  0001 C CNN
F 1 "VDD" V 10500 4600 50  0000 C CNN
F 2 "" H 10500 4400 50  0001 C CNN
F 3 "" H 10500 4400 50  0001 C CNN
	1    10500 4400
	1    0    0    -1  
$EndComp
$Comp
L Amplifier_Operational:TL082 U6
U 1 1 650912EE
P 3000 1550
F 0 "U6" H 3000 1900 50  0000 C CNN
F 1 "TL082CPT" H 3000 1800 50  0000 C CNN
F 2 "Package_SO:TSSOP-8_4.4x3mm_P0.65mm" H 3000 1550 50  0001 C CNN
F 3 "http://www.ti.com/lit/ds/symlink/tl081.pdf" H 3000 1550 50  0001 C CNN
	1    3000 1550
	-1   0    0    -1  
$EndComp
Connection ~ 2700 1550
Wire Wire Line
	2700 1550 2700 1950
Connection ~ 2700 2850
Wire Wire Line
	2700 2850 2700 3250
$EndSCHEMATC
